# Blender MTL File: 'lidar_scene_solidified.blend'
# Material Count: 9

newmtl black_matte
Sp 0 0.1

newmtl floor
Sp 460 0.28 500 0.20 580 0.26 600 0.6

newmtl lamp
Em 500 14 550 19 800 17 801 0

newmtl office_indirect_light
Em 800 9 801 0

newmtl magenta_paper
Sp 460 0.6 500 0.1 570 0.1 600 0.9

newmtl metal
Pm 1
Pr 0
Ni 20
Sp 0 0.5

newmtl table_leg_surface
Sp 0 0.95
Pr 0.05
Ni 1.35
Pm 0.4

newmtl tabletop_surface
Sp 0 0.95
Pr 0.4
Ni 1.1

newmtl transparent_plastic
Tf 0
Ni 1.4

newmtl walls
Sp 0 0.90
