newmtl Blk_base_standardSG
Sp 0 0.1

newmtl carpaint_metallic_726birchlightSG
Pm 0.9
Pr 0
Ni 20
Sp 0 0.5

newmtl deco_exteriorbright_chromeSG
Pm 0.9
Pr 0
Ni 20
Sp 0 0.5

newmtl deco_exteriorhighgloss_blackSG
Pm 0.9
Pr 0
Ni 20
Sp 0 0.1

newmtl glass_na_clearSG
Tf 0
Ni 1.5

newmtl glass_na_windowSG
Tf 0
Ni 1.5

newmtl hammerSG
Sp 0 1

newmtl lamp_chrome_redSG
Sp 460 0 570 0.1 600 0.7


newmtl lightguideSG
Sp 460 0 570 0.1 600 0.9

newmtl metal_na_blackSG
Sp 0 0.1

newmtl metal_white_numberplate_meshSG
Pr 0
Sp 0 0.95

newmtl mirror_mirror_naSG
Pm 1
Pr 0
Ni 20
Sp 0 0.5

newmtl pasted__low_poly_25SG
Pm 0.9
Pr 0
Ni 20
Sp 0 0.5

newmtl pasted__tire_track_meshSG
Sp 0 0.2

newmtl pasted__tire_wall_meshSG
Sp 0 0.15

newmtl plastic_exteriorfine_classicblackSG
Sp 0 0.05

newmtl rim_diamondcut_aluminumSG
Pm 0.9
Pr 0
Ni 20
Sp 0 0.5

newmtl rim_solid_019blacksolidstoneSG
Pm 0.9
Pr 0
Ni 20
Sp 0 0.25

newmtl transparentplastic_na_lampSG
Tf 0
Ni 1.4

newmtl transparentplastic_na_redSG
Tf 0
Ni 1.5

newmtl Leaves.003
Sp 480 0 560 1 650 0.2

newmtl Leaves.004
Sp 480 0 560 1 650 0.2

newmtl Leaves.005
Sp 480 0 560 1 650 0.2

newmtl Material.003
Sp 480 0 560 0.3 650 0.3

newmtl Material.004
Sp 480 0 560 0.3 650 0.3

newmtl Material.005
Sp 480 0 560 0.3 650 0.3

newmtl road
Sp 480 0 560 0.3 650 0.3

newmtl grass
Sp 480 0 560 1 650 0

newmtl sun
Em 0 500
